module gitlab.com/amitai/sarama/examples/interceptors

go 1.19

require (
	gitlab.com/amitai/sarama v1.43.1
	go.opentelemetry.io/otel v1.24.0
	go.opentelemetry.io/otel/exporters/stdout/stdoutmetric v1.24.0
	go.opentelemetry.io/otel/sdk v1.24.0
	go.opentelemetry.io/otel/trace v1.24.0
)

require (
	github.com/davecgh/go-spew v1.1.1 // indirect
	github.com/eapache/go-resiliency v1.6.0 // indirect
	github.com/eapache/go-xerial-snappy v0.0.0-20230731223053-c322873962e3 // indirect
	github.com/eapache/queue v1.1.0 // indirect
	github.com/go-logr/logr v1.4.1 // indirect
	github.com/go-logr/stdr v1.2.2 // indirect
	github.com/golang/snappy v0.0.4 // indirect
	github.com/hashicorp/errwrap v1.0.0 // indirect
	github.com/hashicorp/go-multierror v1.1.1 // indirect
	github.com/hashicorp/go-uuid v1.0.3 // indirect
	github.com/jcmturner/aescts/v2 v2.0.0 // indirect
	github.com/jcmturner/dnsutils/v2 v2.0.0 // indirect
	github.com/jcmturner/gofork v1.7.6 // indirect
	github.com/jcmturner/gokrb5/v8 v8.4.4 // indirect
	github.com/jcmturner/rpc/v2 v2.0.3 // indirect
	github.com/klauspost/compress v1.17.8 // indirect
	github.com/pierrec/lz4/v4 v4.1.21 // indirect
	github.com/rcrowley/go-metrics v0.0.0-20201227073835-cf1acfcdf475 // indirect
	go.opentelemetry.io/otel/metric v1.24.0 // indirect
	go.opentelemetry.io/otel/sdk/metric v1.24.0 // indirect
	golang.org/x/crypto v0.22.0 // indirect
	golang.org/x/net v0.24.0 // indirect
	golang.org/x/sys v0.19.0 // indirect
)

replace gitlab.com/amitai/sarama => ../../
